{
    "AMImage": "ami-46b67a2e", 
    "AppName": "media-testdropwiz", 
    "DNSName": "testdropwiz", 
    "Elbsubnet1": "subnet-2291a24f", 
    "Elbsubnet2": "subnet-4891a225", 
    "Healthcheck": "http:8080/hello-world", 
    "IAMRole": "ct-avail-ec2-role", 
    "InstanceSize": "m1.small", 
    "KeyName": "hybrid-d", 
    "Minsize": "1", 
    "Platform": "dropwizard", 
    "Securitygrp": "sg-cf7bd6a0", 
    "Snstopic": "arn:aws:sns:us-east-1:630720965283:CD-ScalingAlerts-prod", 
    "StackName": "testdropwiz-prod", 
    "Subnet1": "subnet-4b90a326", 
    "Subnet2": "subnet-2190a34c", 
    "TagBusUnit": "media", 
    "TagEnv": "prod", 
    "TagOwner": "Steve", 
    "TagProject": "CD", 
    "classes": [
        "drop_wizard_deploy"
    ], 
    "drop_wizard_deploy::app_deploy_name": "testdropwiz", 
    "drop_wizard_deploy::app_version": "1.0.10", 
    "drop_wizard_deploy::conf_env": "prod", 
    "drop_wizard_deploy::health_uri": "/hello-world", 
    "drop_wizard_deploy::prefix_url": "https://sni4bees.artifactoryonline.com/sni4bees/buildtools-releases-local/com/example/testdropwiz", 
    "drop_wizard_deploy::service_port": "8080"
}
